RTL/rgu1.vcd
$date
	Sun Nov 22 13:46:14 2015
$end
$version
	Icarus Verilog
$end
$timescale
	1ps
$end
$scope module CIRCULAR_SHIFTLEFT_POSEDGE $end
$var wire 1 ! Clock $end
$var wire 1 " Enable $end
$var wire 32 # Initial [31:0] $end
$var wire 32 $ O [31:0] $end
$var wire 1 % Reset $end
$var reg 32 & tmp [31:0] $end
$upscope $end
$scope module FixedPointSquareRoot $end
$var wire 1 ' Clock $end
$var wire 1 ( Reset $end
$var wire 1 ) iInputReady $end
$var wire 64 * iOperand [63:0] $end
$var wire 1 + oOutputReady $end
$var wire 32 , oResult [31:0] $end
$var wire 1 - wNotInLUT $end
$var wire 32 . wResult [31:0] $end
$var wire 32 / wScaleResult [31:0] $end
$var wire 32 0 wScaledOperand [31:0] $end
$scope module FFDelay1 $end
$var wire 1 ' Clock $end
$var wire 1 ) D $end
$var wire 1 1 Enable $end
$var wire 1 ( Reset $end
$var reg 1 2 Q $end
$upscope $end
$scope module SQRT $end
$var wire 32 3 I [31:0] $end
$var reg 32 4 O [31:0] $end
$upscope $end
$scope module FFRESULT $end
$var wire 1 ' Clock $end
$var wire 32 5 D [31:0] $end
$var wire 1 6 Enable $end
$var wire 1 ( Reset $end
$var reg 32 7 Q [31:0] $end
$upscope $end
$upscope $end
$scope module MUXFULLPARALELL_2SEL_GENERIC $end
$var wire 32 8 I1 [31:0] $end
$var wire 32 9 I2 [31:0] $end
$var wire 32 : I3 [31:0] $end
$var wire 32 ; I4 [31:0] $end
$var wire 2 < Sel [1:0] $end
$var reg 32 = O1 [31:0] $end
$upscope $end
$scope module MUXFULLPARALELL_4SEL_GENERIC $end
$var wire 32 > I0 [31:0] $end
$var wire 32 ? I1 [31:0] $end
$var wire 32 @ I10 [31:0] $end
$var wire 32 A I11 [31:0] $end
$var wire 32 B I12 [31:0] $end
$var wire 32 C I13 [31:0] $end
$var wire 32 D I14 [31:0] $end
$var wire 32 E I15 [31:0] $end
$var wire 32 F I2 [31:0] $end
$var wire 32 G I3 [31:0] $end
$var wire 32 H I4 [31:0] $end
$var wire 32 I I5 [31:0] $end
$var wire 32 J I6 [31:0] $end
$var wire 32 K I7 [31:0] $end
$var wire 32 L I8 [31:0] $end
$var wire 32 M I9 [31:0] $end
$var wire 4 N Sel [3:0] $end
$var reg 32 O O1 [31:0] $end
$upscope $end
$scope module SELECT_1_TO_N $end
$var wire 1 P En $end
$var wire 16 Q O [15:0] $end
$var wire 4 R Sel [3:0] $end
$var reg 16 S shift [15:0] $end
$upscope $end
$scope module SimpleOperationTestBench $end
$var wire 32 T oFifoData [31:0] $end
$var wire 1 U oFifoPush $end
$var wire 32 V oUartData [31:0] $end
$var reg 1 W iClock $end
$var reg 1 X iEnable $end
$var reg 1 Y iReset $end
$var reg 8 Z iUartAddr [7:0] $end
$var reg 32 [ iUartData [31:0] $end
$var reg 1 \ iUartSelected $end
$var reg 1 ] iUartWrite $end
$var integer 32 ^ log [31:0] $end
$var reg 7 _ random [6:0] $end
$scope module RGU $end
$var wire 1 ` iClock $end
$var wire 1 a iEnable $end
$var wire 1 b iReset $end
$var wire 8 c iUartAddr [7:0] $end
$var wire 32 d iUartData [31:0] $end
$var wire 1 e iUartSelected $end
$var wire 1 f iUartWrite $end
$var wire 32 g oFifoData [31:0] $end
$var wire 32 h oUartData [31:0] $end
$var wire 64 i wA [63:0] $end
$var wire 64 j wB [63:0] $end
$var wire 32 k wCurrentInstruction [31:0] $end
$var wire 5 l wDestination [4:0] $end
$var wire 6 m wInstructionAddr [5:0] $end
$var wire 32 n wInstructionData [31:0] $end
$var wire 6 o wInstructionPointer [5:0] $end
$var wire 1 p wInstructionResetBit $end
$var wire 1 q wInstructionStopBit $end
$var wire 1 r wInstructionWriteEnable $end
$var wire 3 s wOperation [2:0] $end
$var wire 5 t wRegReadAddr0 [4:0] $end
$var wire 5 u wRegReadAddr1 [4:0] $end
$var wire 5 v wRegWriteAddr [4:0] $end
$var wire 64 w wRegWriteData [63:0] $end
$var wire 1 x wRegWriteEnable $end
$var wire 64 y wSourceA [63:0] $end
$var wire 64 z wSourceB [63:0] $end
$var wire 32 { wSrtRoot [31:0] $end
$var wire 64 | wSubResult [63:0] $end
$var reg 1 } oFifoPush $end
$var reg 1 ~ rDataWriteEnable $end
$var reg 5 !" rRegReadAddr0 [4:0] $end
$var reg 5 "" rRegReadAddr1 [4:0] $end
$var reg 5 #" rRegWriteAddr [4:0] $end
$var reg 64 $" rResult [63:0] $end
$var reg 64 %" rResultOld [63:0] $end
$scope module IP $end
$var wire 1 ` Clock $end
$var wire 1 &" Enable $end
$var wire 6 '" Initial [5:0] $end
$var wire 1 (" Reset $end
$var reg 6 )" Q [5:0] $end
$upscope $end
$scope module DATA_RAM $end
$var wire 1 ` Clock $end
$var wire 64 *" iDataIn [63:0] $end
$var wire 5 +" iReadAddress0 [4:0] $end
$var wire 5 ," iReadAddress1 [4:0] $end
$var wire 5 -" iWriteAddress [4:0] $end
$var wire 1 x iWriteEnable $end
$var reg 64 ." oDataOut0 [63:0] $end
$var reg 64 /" oDataOut1 [63:0] $end
$upscope $end
$scope module INSTRUCTION_RAM $end
$var wire 1 ` Clock $end
$var wire 32 0" iDataIn [31:0] $end
$var wire 6 1" iReadAddress0 [5:0] $end
$var wire 6 2" iWriteAddress [5:0] $end
$var wire 1 r iWriteEnable $end
$var reg 32 3" oDataOut0 [31:0] $end
$upscope $end
$scope module FFD_OP $end
$var wire 1 ` Clock $end
$var wire 3 4" D [2:0] $end
$var wire 1 5" Enable $end
$var wire 1 b Reset $end
$var reg 3 6" Q [2:0] $end
$upscope $end
$scope module FFD_DST $end
$var wire 1 ` Clock $end
$var wire 5 7" D [4:0] $end
$var wire 1 8" Enable $end
$var wire 1 b Reset $end
$var reg 5 9" Q [4:0] $end
$upscope $end
$scope module SUBTRACT $end
$var wire 64 :" iA [63:0] $end
$var wire 64 ;" iB [63:0] $end
$var wire 64 <" oR [63:0] $end
$upscope $end
$scope module sqrt $end
$var wire 32 =" iOperand [31:0] $end
$var wire 32 >" oResult [31:0] $end
$var wire 64 ?" wAdjustedScaled [63:0] $end
$var wire 1 @" wNotInLUT $end
$var wire 32 A" wScaledOperand [31:0] $end
$var wire 32 B" wScaledResult [31:0] $end
$scope module SQRT $end
$var wire 32 C" I [31:0] $end
$var reg 32 D" O [31:0] $end
$upscope $end
$upscope $end
$upscope $end
$scope task checker $end
$var integer 32 E" iteration [31:0] $end
$upscope $end
$scope task drv_ram $end
$var integer 32 F" iteration [31:0] $end
$upscope $end
$scope task drv_random $end
$var integer 32 G" iteration [31:0] $end
$upscope $end
$upscope $end
$scope module SynchFIFO $end
$var wire 1 H" iClock $end
$var wire 32 I" iDataIn [31:0] $end
$var wire 1 J" iPop $end
$var wire 1 K" iPush $end
$var wire 1 L" iReset $end
$var wire 32 M" oDataOut [31:0] $end
$var wire 1 N" oEmpty $end
$var wire 1 O" oFull $end
$var wire 4 P" wReadPointer [3:0] $end
$var reg 4 Q" rWritePointer [3:0] $end
$upscope $end
$enddefinitions $end
#0
$dumpvars
bx Q"
bx P"
xO"
xN"
bx M"
zL"
zK"
zJ"
bz I"
zH"
bx G"
bx F"
bx E"
b1100101011001010 D"
bx C"
b1100101011001010 B"
bx A"
x@"
b0xx00x0x0xx00 ?"
b0xx00xxx0xxx0xxx0 >"
bx ="
bx <"
bx ;"
bx :"
bx 9"
18"
bx 7"
bx 6"
15"
bx 4"
bx 3"
bx 2"
bx 1"
b0xxxxxxxxxxxxxxxx 0"
bx /"
bx ."
bx -"
bx ,"
bx +"
b0 *"
bx )"
x("
b0 '"
x&"
bx %"
b0 $"
bx #"
bx ""
bx !"
0~
0}
bx |
b0xx00xxx0xxx0xxx0 {
bx z
bx y
0x
b0 w
bx v
bx u
bx t
bx s
0r
xq
xp
bx o
b0xxxxxxxxxxxxxxxx n
bx m
bx l
bx k
bx j
bx i
bx h
bx g
xf
xe
bx d
bx c
0b
1a
0`
bx _
b10 ^
x]
x\
bx [
bx Z
0Y
1X
0W
bx V
0U
bx T
bx S
bz R
bx Q
zP
b100000 O
bz N
bz M
bz L
bz K
bz J
bz I
bz H
bz G
bz F
bz E
bz D
bz C
bz B
bz A
bz @
bz ?
bz >
b100000 =
bz <
bz ;
bz :
bz 9
bz 8
bx 7
16
b0x1x0xxxxx1x0xxxx0 5
b1100101011001010 4
bxzzzzzzzzz00000000000000000 3
x2
11
bxzzzzzzzzz00000000000000000 0
b1100101011001010 /
b0x1x0xxxxx1x0xxxx0 .
z-
bx ,
x+
bz *
z)
z(
z'
bx &
z%
bx $
bz #
z"
z!
$end
#5000
b0 %"
1W
1`
#10000
0W
0`
#15000
1W
1`
#20000
0W
0`
#25000
1W
1`
#30000
0W
0`
#35000
1W
1`
#40000
0W
0`
#45000
1W
1`
#50000
0W
0`
#55000
1W
1`
#60000
0W
0`
#65000
1W
1`
#70000
0W
0`
#75000
1W
1`
#80000
0W
0`
#85000
1W
1`
#90000
0W
0`
#95000
1W
1`
#100000
1("
0W
0`
1Y
1b
#105000
b1100101011001010 {
b1100101011001010 >"
b0 ?"
0@"
b0 A"
b0 C"
b0 ="
b0 T
b0 g
b0 |
b0 <"
b0 i
b0 :"
b0 j
b0 ;"
b0 m
b0 2"
b0 v
b0 -"
b0 )"
0p
b0 o
b0 1"
b0 6"
b0 s
b0 9"
b0 l
b0 #"
b0 ""
b0 !"
1W
1`
#110000
0W
0`
#115000
1&"
b1 t
b1 +"
b111 7"
b101 4"
b1 u
b1 ,"
0q
b0x0x00xxx0000x0000x V
b0x0x00xxx0000x0000x h
b101001110000100001 3"
b101001110000100001 k
1W
1`
#120000
0W
0`
#125000
1W
1`
#130000
0W
0`
#135000
1W
1`
#140000
0W
0`
#145000
1W
1`
#150000
0W
0`
#155000
1W
1`
#160000
0W
0`
#165000
1W
1`
#170000
0W
0`
#175000
1W
1`
#180000
0W
0`
#185000
1W
1`
#190000
0W
0`
#195000
1W
1`
#200000
0W
0`
#205000
1W
1`
#210000
0W
0`
#215000
1W
1`
#220000
0W
0`
#225000
1W
1`
#230000
0W
0`
#235000
1W
1`
#240000
0W
0`
#245000
1W
1`
#250000
0W
0`
#255000
1W
1`
#260000
0W
0`
#265000
1W
1`
#270000
0W
0`
#275000
1W
1`
#280000
0W
0`
#285000
1W
1`
#290000
0W
0`
#295000
1W
1`
#300000
0W
0`
#305000
1W
1`
#310000
0W
0`
#315000
1W
1`
#320000
0W
0`
#325000
1W
1`
#330000
0W
0`
#335000
1W
1`
#340000
0W
0`
#345000
1W
1`
#350000
0W
0`
#355000
1W
1`
#360000
0W
0`
#365000
1W
1`
#370000
0W
0`
#375000
1W
1`
#380000
0W
0`
#385000
1W
1`
#390000
0W
0`
#395000
1W
1`
#400000
0W
0`
#405000
1W
1`
#410000
0W
0`
#415000
1W
1`
#420000
0W
0`
#425000
1W
1`
#430000
0W
0`
#435000
1W
1`
#440000
0W
0`
#445000
1W
1`
#450000
0W
0`
#455000
1W
1`
#460000
0W
0`
#465000
1W
1`
#470000
0W
0`
#475000
1W
1`
#480000
0W
0`
#485000
1W
1`
#490000
0W
0`
#495000
1W
1`
#500000
0W
0`
#505000
1W
1`
#510000
0W
0`
#515000
1W
1`
#520000
0W
0`
#525000
1W
1`
#530000
0W
0`
#535000
1W
1`
#540000
0W
0`
#545000
1W
1`
#550000
0W
0`
#555000
1W
1`
#560000
0W
0`
#565000
1W
1`
#570000
0W
0`
#575000
1W
1`
#580000
0W
0`
#585000
1W
1`
#590000
0W
0`
#595000
1W
1`
#600000
b100100 _
0("
0W
0`
b101110111000 G"
b101110111000 F"
b101110111000 E"
0Y
0b
#605000
b0xx00xxx0xxx0xxx0 {
b0xx00xxx0xxx0xxx0 >"
b0xx00x0x0xx00 ?"
x@"
b0xxxxxxx00000000000000000 A"
b0xxxxxxx00000000000000000 C"
b0xxxxxxx0x00xxx0000x0000x V
b0xxxxxxx0x00xxx0000x0000x h
b0xxxxxxx00000000000000000 ="
b0xxxxxxx00000000000000000 T
b0xxxxxxx00000000000000000 g
b0xx00xxx0xxx0xxx0 w
b0xx00xxx0xxx0xxx0 *"
1x
b0xxxxxxx00000000000000000 i
b0xxxxxxx00000000000000000 :"
bx |
bx <"
b0xxxxxxx00000000000000000 j
b0xxxxxxx00000000000000000 ;"
b1 m
b1 2"
b0xx00xxx0xxx0xxx0 $"
1~
b111 v
b111 -"
b1 )"
b1 o
b1 1"
b0xxxxxxx00000000000000000 /"
b0xxxxxxx00000000000000000 y
b0xxxxxxx00000000000000000 ."
b0xxxxxxx00000000000000000 z
b101 6"
b101 s
b111 9"
b111 l
b1 ""
b1 !"
1W
1`
#610000
0W
0`
#615000
b101010101010101 w
b101010101010101 *"
b101010101010101 $"
b101010101010101 D"
b101010101010101 B"
b101010101010101 {
b101010101010101 >"
b0 ?"
0@"
b10010000000000000000000 A"
b10010000000000000000000 C"
b111 t
b111 +"
b10010000000000000000000 ="
b10010000000000000000000 T
b10010000000000000000000 g
b1000 7"
b1 4"
b111 u
b111 ,"
b0x00x000x0x00000xxx00xxx V
b0x00x000x0x00000xxx00xxx h
b0 |
b0 <"
b10010000000000000000000 i
b10010000000000000000000 :"
b10010000000000000000000 j
b10010000000000000000000 ;"
b10 m
b10 2"
b0xx00xxx0xxx0xxx0 %"
b111 #"
b1010000011100111 3"
b1010000011100111 k
b10010000000000000000000 /"
b10010000000000000000000 y
b10010000000000000000000 ."
b10010000000000000000000 z
b10 )"
b10 o
b10 1"
1W
1`
#620000
0W
0`
#625000
b1100101011001010 {
b1100101011001010 >"
b1100101011001010 D"
b1100101011001010 B"
b101010101010101 A"
b101010101010101 C"
b101010101010101 ="
b101010101010101 T
b101010101010101 g
b1000 t
b1000 +"
b111000111000 w
b111000111000 *"
b11 m
b11 2"
b101010101010101 i
b101010101010101 :"
b0 |
b0 <"
b101010101010101 j
b101010101010101 ;"
b1001 7"
b1 u
b1 ,"
b0xxxx010x0xxxxx0x V
b0xxxx010x0xxxxx0x h
b111000111000 $"
b1000 v
b1000 -"
b11 )"
b11 o
b11 1"
b0xx00xxx0xxx0xxx0 /"
b0xx00xxx0xxx0xxx0 y
b0xx00xxx0xxx0xxx0 ."
b0xx00xxx0xxx0xxx0 z
b1010010000101000 3"
b1010010000101000 k
b1 6"
b1 s
b1000 9"
b1000 l
b101010101010101 %"
b111 ""
b111 !"
1W
1`
#630000
0W
0`
#635000
b101010101010101 {
b101010101010101 >"
b101010101010101 D"
b101010101010101 B"
b10010000000000000000000 A"
b10010000000000000000000 C"
b11111111111100000 w
b11111111111100000 *"
b10010000000000000000000 ="
b10010000000000000000000 T
b10010000000000000000000 g
b11111111111100000 $"
b1001 t
b1001 +"
b10010000000000000000000 i
b10010000000000000000000 :"
b10001111111000111001000 |
b10001111111000111001000 <"
b111000111000 j
b111000111000 ;"
b1001 v
b1001 -"
b1010 7"
b10 4"
b10 u
b10 ,"
b0x00x01xx00xxx100x V
b0x00x01xx00xxx100x h
b100 m
b100 2"
b1000 !"
b1 ""
b111000111000 %"
b1000 #"
b1001 9"
b1001 l
b10010100001001001 3"
b10010100001001001 k
b10010000000000000000000 /"
b10010000000000000000000 y
bx ."
bx z
b100 )"
b100 o
b100 1"
1W
1`
#640000
0W
0`
#645000
b10010011110011010 {
b10010011110011010 >"
b10010011110011010 D"
b10010011110011010 B"
b1100000000000000000 A"
b1100000000000000000 C"
b1100000000000000000 ="
b1100000000000000000 T
b1100000000000000000 g
b111 t
b111 +"
b1000000000000100000 w
b1000000000000100000 *"
b101 m
b101 2"
b1100000000000000000 i
b1100000000000000000 :"
b1011 7"
b1 4"
b1010 u
b1010 ,"
b0x1x1x11x1x1x00xxx V
b0x1x1x11x1x1x00xxx h
b1000000000000100000 $"
b1010 v
b1010 -"
b1000000000000100000 |
b1000000000000100000 <"
b11111111111100000 j
b11111111111100000 ;"
b101 )"
b101 o
b101 1"
b1100000000000000000 /"
b1100000000000000000 y
b1010110101000111 3"
b1010110101000111 k
b10 6"
b10 s
b1010 9"
b1010 l
b1001 #"
b11111111111100000 %"
b10 ""
b1001 !"
1W
1`
#650000
0W
0`
#655000
b1100101011001010 {
b1100101011001010 >"
b0 ?"
b1100101011001010 D"
b1100101011001010 B"
0@"
b1000000000000100000 A"
b1000000000000100000 C"
b1010101010101111 w
b1010101010101111 *"
b11 t
b11 +"
b1000000000000100000 ="
b1000000000000100000 T
b1000000000000100000 g
b101010101010101 j
b101010101010101 ;"
b1011 v
b1011 -"
b1010101010101111 $"
b1100 7"
b100 4"
b1011 u
b1011 ,"
b0x00xx10x0101xx0xx1 V
b0x00xx10x0101xx0xx1 h
b111010101011001011 |
b111010101011001011 <"
b1000000000000100000 i
b1000000000000100000 :"
1("
b110 m
b110 2"
b111 !"
b1010 ""
b1000000000000100000 %"
b1010 #"
b1011 9"
b1011 l
b1 6"
b1 s
b100011000101100011 3"
b100011000101100011 k
bx /"
bx y
b101010101010101 ."
b101010101010101 z
b110 )"
1p
b110 o
b110 1"
1W
1`
#660000
0W
0`
#665000
b1010101010101111 A"
b1010101010101111 C"
b0 t
b0 +"
b101010101010111 w
b101010101010111 *"
b1010101010101111 ="
b1010101010101111 T
b1010101010101111 g
0("
b0 m
b0 2"
b1000000000000000000 j
b1000000000000000000 ;"
b0 7"
b110 4"
b1100 u
b1100 ,"
b0xxx0000000xx0000000 V
b0xxx0000000xx0000000 h
b101010101010111 $"
b1100 v
b1100 -"
b1111111111111111111111111111111111111111111111001010101010101111 |
b1111111111111111111111111111111111111111111111001010101010101111 <"
b1010101010101111 i
b1010101010101111 :"
b0 )"
0p
b0 o
b0 1"
b1000000000000000000 ."
b1000000000000000000 z
b110000000110000000 3"
b110000000110000000 k
b100 6"
b100 s
b1100 9"
b1100 l
b1011 #"
b1010101010101111 %"
b1011 ""
b11 !"
1W
1`
#670000
b1 _
0W
0`
#675000
b101010101010111 A"
b101010101010111 C"
b101010101010111 ="
b101010101010111 T
b101010101010111 g
b101010101010111 w
b101010101010111 *"
b1 t
b1 +"
b101010101010111 i
b101010101010111 :"
b0 v
b0 -"
1}
1U
b101010101010111 $"
b111 7"
b101 4"
b1 u
b1 ,"
b0x0x00xxx0000x0000x V
b0x0x00xxx0000x0000x h
b101010101010111 |
b101010101010111 <"
b0 j
b0 ;"
b1 m
b1 2"
b0 !"
b1100 ""
b101010101010111 %"
b1100 #"
b0 9"
b0 l
b110 6"
b110 s
b101001110000100001 3"
b101001110000100001 k
b0 ."
b0 z
b1 )"
b1 o
b1 1"
1W
1`
#680000
0W
0`
#685000
b100000000000000000 {
b100000000000000000 >"
b100000000000000000 D"
b100000000000000000 B"
b100000000000000000 A"
b100000000000000000 C"
b100000000000000000 ="
b100000000000000000 T
b100000000000000000 g
b111 t
b111 +"
b100000000000000000 w
b100000000000000000 *"
b100000000000000000 i
b100000000000000000 :"
b10 m
b10 2"
b0 |
b0 <"
b100000000000000000 j
b100000000000000000 ;"
b1000 7"
b1 4"
b111 u
b111 ,"
b0x0x0x00000xxx00xxx V
b0x0x0x00000xxx00xxx h
0}
0U
b100000000000000000 $"
b111 v
b111 -"
b10 )"
b10 o
b10 1"
b100000000000000000 /"
b100000000000000000 y
b100000000000000000 ."
b100000000000000000 z
b1010000011100111 3"
b1010000011100111 k
b101 6"
b101 s
b111 9"
b111 l
b0 #"
b1 ""
b1 !"
1W
1`
#690000
0W
0`
#695000
b100000000000000000 {
b100000000000000000 >"
b100000000000000000 D"
b100000000000000000 B"
b100000000000000000 A"
b100000000000000000 C"
b100000000000000000 w
b100000000000000000 *"
b1000 t
b1000 +"
b100000000000000000 ="
b100000000000000000 T
b100000000000000000 g
b1000 v
b1000 -"
b100000000000000000 $"
b1001 7"
b1 u
b1 ,"
b0x0x0x00x0000x0x000 V
b0x0x0x00x0000x0x000 h
b100000000000000000 i
b100000000000000000 :"
b0 |
b0 <"
b100000000000000000 j
b100000000000000000 ;"
b11 m
b11 2"
b111 !"
b111 ""
b100000000000000000 %"
b111 #"
b1000 9"
b1000 l
b1 6"
b1 s
b1010010000101000 3"
b1010010000101000 k
b101010101010101 /"
b101010101010101 y
b101010101010101 ."
b101010101010101 z
b11 )"
b11 o
b11 1"
1W
1`
#700000
0W
0`
#705000
b1001 t
b1001 +"
b100 m
b100 2"
b1010 7"
b10 4"
b10 u
b10 ,"
b0xx00x0x0000x00x00x V
b0xx00x0x0000x00x00x h
b1001 v
b1001 -"
b100 )"
b100 o
b100 1"
b100000000000000000 /"
b100000000000000000 y
b111000111000 ."
b111000111000 z
b10010100001001001 3"
b10010100001001001 k
b1001 9"
b1001 l
b1000 #"
b1 ""
b1000 !"
1W
1`
#710000
0W
0`
#715000
b10010011110011010 {
b10010011110011010 >"
b10010011110011010 D"
b10010011110011010 B"
b1100000000000000000 A"
b1100000000000000000 C"
b1000000000000000000 w
b1000000000000000000 *"
b111 t
b111 +"
b1100000000000000000 ="
b1100000000000000000 T
b1100000000000000000 g
b1010 v
b1010 -"
b1000000000000000000 $"
b1011 7"
b1 4"
b1010 u
b1010 ,"
b0x0x0x0xx0x0x000xxx V
b0x0x0x0xx0x0x000xxx h
b1000000000000000000 |
b1000000000000000000 <"
b1100000000000000000 i
b1100000000000000000 :"
b101 m
b101 2"
b1001 !"
b10 ""
b1001 #"
b1010 9"
b1010 l
b10 6"
b10 s
b1010110101000111 3"
b1010110101000111 k
b1100000000000000000 /"
b1100000000000000000 y
b11111111111100000 ."
b11111111111100000 z
b101 )"
b101 o
b101 1"
1W
1`
#720000
0W
0`
#725000
b10110101000001001 {
b10110101000001001 >"
b10110101000001001 D"
b10110101000001001 B"
b1000000000000000000 A"
b1000000000000000000 C"
b1000000000000000000 ="
b1000000000000000000 T
b1000000000000000000 g
b11 t
b11 +"
b1000000000000000000 w
b1000000000000000000 *"
1("
b110 m
b110 2"
b100000000000000000 |
b100000000000000000 <"
b1000000000000000000 i
b1000000000000000000 :"
b1100 7"
b100 4"
b1011 u
b1011 ,"
b1000xx000x0xx000xx V
b1000xx000x0xx000xx h
b1000000000000000000 $"
b1011 v
b1011 -"
b110 )"
1p
b110 o
b110 1"
b1000000000000100000 /"
b1000000000000100000 y
b100000000000000000 ."
b100000000000000000 z
b100011000101100011 3"
b100011000101100011 k
b1 6"
b1 s
b1011 9"
b1011 l
b1010 #"
b1000000000000000000 %"
b1010 ""
b111 !"
1W
1`
#730000
0W
0`
#735000
b100000000000000000 w
b100000000000000000 *"
b0 t
b0 +"
b1100 v
b1100 -"
b100000000000000000 $"
b0 7"
b110 4"
b1100 u
b1100 ,"
b0xxx0000000xx0000000 V
b0xxx0000000xx0000000 h
b0 |
b0 <"
b1000000000000000000 j
b1000000000000000000 ;"
0("
b0 m
b0 2"
b11 !"
b1011 ""
b1011 #"
b1100 9"
b1100 l
b100 6"
b100 s
b110000000110000000 3"
b110000000110000000 k
b1010101010101111 /"
b1010101010101111 y
b1000000000000000000 ."
b1000000000000000000 z
b0 )"
0p
b0 o
b0 1"
1W
1`
#740000
b1001 _
0W
0`
#745000
b100000000000000000 {
b100000000000000000 >"
b100000000000000000 D"
b100000000000000000 B"
b100000000000000000 A"
b100000000000000000 C"
b1 t
b1 +"
b100000000000000000 ="
b100000000000000000 T
b100000000000000000 g
b1 m
b1 2"
b101010101010111 j
b101010101010111 ;"
b111 7"
b101 4"
b1 u
b1 ,"
b0x0xx01x10x0xxx0xx1 V
b0x0xx01x10x0xxx0xx1 h
1}
1U
b0 v
b0 -"
b11010101010101001 |
b11010101010101001 <"
b100000000000000000 i
b100000000000000000 :"
b1 )"
b1 o
b1 1"
b101010101010111 /"
b101010101010111 y
b101010101010111 ."
b101010101010111 z
b101001110000100001 3"
b101001110000100001 k
b110 6"
b110 s
b0 9"
b0 l
b1100 #"
b100000000000000000 %"
b1100 ""
b0 !"
1W
1`
#750000
0W
0`
#755000
b1010101010101010 w
b1010101010101010 *"
b1010101010101010 $"
b1010101010101010 {
b1010101010101010 >"
b1010101010101010 D"
b1010101010101010 B"
b100100000000000000000 A"
b100100000000000000000 C"
b100100000000000000000 ="
b100100000000000000000 T
b100100000000000000000 g
b100100000000000000000 i
b100100000000000000000 :"
b111 t
b111 +"
b111 v
b111 -"
0}
0U
b1000 7"
b1 4"
b111 u
b111 ,"
b0x00x0x0x00000xxx00xxx V
b0x00x0x0x00000xxx00xxx h
b0 |
b0 <"
b100100000000000000000 j
b100100000000000000000 ;"
b10 m
b10 2"
b1 !"
b1 ""
b0 #"
b111 9"
b111 l
b101 6"
b101 s
b1010000011100111 3"
b1010000011100111 k
b100100000000000000000 /"
b100100000000000000000 y
b100100000000000000000 ."
b100100000000000000000 z
b10 )"
b10 o
b10 1"
1W
1`
#760000
0W
0`
#765000
b1100101011001010 {
b1100101011001010 >"
b1100101011001010 D"
b1100101011001010 B"
b1010101010101010 A"
b1010101010101010 C"
b1010101010101010 ="
b1010101010101010 T
b1010101010101010 g
b1000 t
b1000 +"
b11100011100011 w
b11100011100011 *"
b11 m
b11 2"
b1010101010101010 i
b1010101010101010 :"
b0 |
b0 <"
b1010101010101010 j
b1010101010101010 ;"
b1001 7"
b1 u
b1 ,"
b1010xxx0x01010x0 V
b1010xxx0x01010x0 h
b11100011100011 $"
b1000 v
b1000 -"
b11 )"
b11 o
b11 1"
b100000000000000000 /"
b100000000000000000 y
b100000000000000000 ."
b100000000000000000 z
b1010010000101000 3"
b1010010000101000 k
b1 6"
b1 s
b1000 9"
b1000 l
b111 #"
b1010101010101010 %"
b111 ""
b111 !"
1W
1`
#770000
0W
0`
#775000
b1010101010101010 {
b1010101010101010 >"
b1010101010101010 D"
b1010101010101010 B"
b100100000000000000000 A"
b100100000000000000000 C"
b11111111111111011 w
b11111111111111011 *"
b100100000000000000000 ="
b100100000000000000000 T
b100100000000000000000 g
b11111111111111011 $"
b1001 t
b1001 +"
b100100000000000000000 i
b100100000000000000000 :"
b100011100011100011101 |
b100011100011100011101 <"
b11100011100011 j
b11100011100011 ;"
b1001 v
b1001 -"
b1010 7"
b10 4"
b10 u
b10 ,"
b0x001x1000x1x0x0x1 V
b0x001x1000x1x0x0x1 h
b100 m
b100 2"
b1000 !"
b1 ""
b11100011100011 %"
b1000 #"
b1001 9"
b1001 l
b10010100001001001 3"
b10010100001001001 k
b100100000000000000000 /"
b100100000000000000000 y
b100 )"
b100 o
b100 1"
1W
1`
#780000
0W
0`
#785000
b10010011110011010 {
b10010011110011010 >"
b10010011110011010 D"
b10010011110011010 B"
b1100000000000000000 A"
b1100000000000000000 C"
b1100000000000000000 ="
b1100000000000000000 T
b1100000000000000000 g
b111 t
b111 +"
b1000000000000000101 w
b1000000000000000101 *"
b101 m
b101 2"
b1100000000000000000 i
b1100000000000000000 :"
b1011 7"
b1 4"
b1010 u
b1010 ,"
b0x1x1x11x1x1xxxx11 V
b0x1x1x11x1x1xxxx11 h
b1000000000000000101 $"
b1010 v
b1010 -"
b1000000000000000101 |
b1000000000000000101 <"
b11111111111111011 j
b11111111111111011 ;"
b101 )"
b101 o
b101 1"
b1100000000000000000 /"
b1100000000000000000 y
b1010110101000111 3"
b1010110101000111 k
b10 6"
b10 s
b1010 9"
b1010 l
b1001 #"
b11111111111111011 %"
b10 ""
b1001 !"
1W
1`
#790000
0W
0`
#795000
b1100101011001010 {
b1100101011001010 >"
b1100101011001010 D"
b1100101011001010 B"
b1000000000000000101 A"
b1000000000000000101 C"
b10101010101010101 w
b10101010101010101 *"
b11 t
b11 +"
b1000000000000000101 ="
b1000000000000000101 T
b1000000000000000101 g
b1010101010101010 j
b1010101010101010 ;"
b1011 v
b1011 -"
b10101010101010101 $"
b1100 7"
b100 4"
b1011 u
b1011 ,"
b0x0x01xx0xxxx10x01x V
b0x0x01xx0xxxx10x01x h
b110101010101011011 |
b110101010101011011 <"
b1000000000000000101 i
b1000000000000000101 :"
1("
b110 m
b110 2"
b111 !"
b1010 ""
b1000000000000000101 %"
b1010 #"
b1011 9"
b1011 l
b1 6"
b1 s
b100011000101100011 3"
b100011000101100011 k
b1000000000000000000 /"
b1000000000000000000 y
b1010101010101010 ."
b1010101010101010 z
b110 )"
1p
b110 o
b110 1"
1W
1`
#800000
0W
0`
#805000
b10101010101010101 A"
b10101010101010101 C"
b0 t
b0 +"
b1010101010101010 w
b1010101010101010 *"
b10101010101010101 ="
b10101010101010101 T
b10101010101010101 g
0("
b0 m
b0 2"
b1000000000000000000 j
b1000000000000000000 ;"
b0 7"
b110 4"
b1100 u
b1100 ,"
b0xxx0000000xx0000000 V
b0xxx0000000xx0000000 h
b1010101010101010 $"
b1100 v
b1100 -"
b1111111111111111111111111111111111111111111111010101010101010101 |
b1111111111111111111111111111111111111111111111010101010101010101 <"
b10101010101010101 i
b10101010101010101 :"
b0 )"
0p
b0 o
b0 1"
b1000000000000000000 ."
b1000000000000000000 z
b110000000110000000 3"
b110000000110000000 k
b100 6"
b100 s
b1100 9"
b1100 l
b1011 #"
b10101010101010101 %"
b1011 ""
b11 !"
1W
1`
#810000
b1100011 _
0W
0`
